{
  "adopters": [
    {
      "id": 1,
      "name": "Ivan",
      "age": 24,
      "city": "Plovdiv",
      "gender": "male"
    },
    {
      "id": 2,
      "name": "Petur",
      "age": 18,
      "city": "Plovdiv",
      "gender": "male"
    },
    {
      "id": 3,
      "name": "Gosho",
      "age": 21,
      "city": "Plovdiv",
      "gender": "male"
    },
    {
      "id": 4,
      "name": "Gergana",
      "age": 34,
      "city": "Plovdiv",
      "gender": "female"
    },
    {
      "id": 5,
      "name": "Ivana",
      "age": 42,
      "city": "Plovdiv",
      "gender": "female"
    }
  ],

  "animals": [
    {
      "id": "1",
      "type": "dog",
      "age": "1",
      "color": "brown",
      "favoriteFood": "lamb",
      "imageUrl": "http://www.dogbreedslist.info/uploads/allimg/dog-pictures/Rhodesian-Ridgeback-1.jpg"
    },
    {
      "id": "2",
      "type": "cat",
      "age": "4",
      "color": "white",
      "favoriteFood": "fish",
      "imageUrl": "http://www.catbreedslist.com/uploads/allimg/cat-pictures/Exotic-Shorthair-1.jpg"
    },
    {
      "id": "3",
      "type": "mouse",
      "age": "2",
      "color": "grey",
      "favoriteFood": "nuts",
      "imageUrl": "http://www.pestmall.com/blog/wp-content/uploads/2010/01/Mouse-PestControl-5.jpg"
    }
  ]
}
